Value	Label	Tags
agri-life	Agri-Life	
alfalfa	Alfalfa	mulch
alfalfameal	Alfalfameal	
all_purpose	All Purpose	
all_purpose_plant_food	All purpose plant food	
allganic_15_0_2	Allganic 15-0-2	
alpha	Alpha	
azomite	Azomite	
basalt	Basalt	
bear_path	Bear Path	
bfa_springblend	BFA Spring Blend	
bio_humus	Bio Humus	
bio-cal	Bio-Cal	
biodynamic_bd_500	Biodynamic BD 500	
biodynamic_stinging_nettle	Biodynamic stinging nettle	compost tea
biogenesis	Biogenesis	
black_gypsum_dg	Black Gyspum DG	
bloodmeal	Bloodmeal	
bonemeal	Bonemeal	
boron	Boron	
boron_10	Boron, 10%	
boron_15	Boron, 15%	
brown_phosphate	Brown phosphate	
calcitic_lime	Calcitic Lime	
caliber	CALiber	
calphos	Cal Phos	
carbonotite	Carbonotite	
cardboard	Cardboard	mulch
chick_magic_5_3_2	Chick Magic 5-3-2	
chilean_nitrate	Chilean nitrate	
cobalt_carbonate	Cobalt carbonate	
complete_mix	Complete mix	
compost	Compost	compost
composted_chicken_manure	Composted Chicken Manure	compost
composted_cow_manure	Composted Cow Manure	compost
composted_manure	Composted Manure	compost
composted_plant_material	Composted Plant Matter	compost
composted_swine_manure	Composted Swine Manure	compost
consortium	Consortium	
coop_poop_243	Coop Poop 2-4-3	
coop_poop_garden_food	Coop Poop Garden Food	
copper_sulfate	Cu, Copper sulfate	
county_waste_compost	Compost from dump or waste removal facility	compost
crab_shell	Crab Shell	
crabmeal	Crabmeal	
cx_1	CX-1 Liquid Fertilizer	
dead_green_crabs_seaweed	Dead green crabs and seaweed	mulch
decaying_plant_material	Decaying Plant Material	mulch
dramm_l	Dramm L	
dramm_o_liquid_fish	Dramm O Liquid Fish	
dramm_one	Dramm One	
dramm_s	Dramm S	
drammatic_e	Drammatic “E”	
earth_care_farm	Earth Care Farm compost	compost
elemental_sulfur	Elemental sulfur	
epsom_salt	Epsom salt	
equisetum	Equisetum	
esn	ESN	
feathermeal	Feathermeal	
fermented_plant_juice	Fermented Plant Juice	foliar spray
ferrous_sulphate	Iron, Ferrous Sulphate	
fertrell_2-1-1	Fertrell 2-1-1	
fertrell_3-4-7	Fertrell 3-4-7	
fertrell_5-1-1	Fertrell 5-1-1	
fish_emulsion	Fish emulsion	
fishbone_meal	Fishbone meal	
fishmeal	Fishmeal	
forage_foliar	Forage Foliar	
fulvic_lg	Fulvic LQ	
garden_tone	Garden Tone	
granite_sand	Granite Sand	
green_sand	Green sand	
growers_secret_nitrogen	Growers Secret Nitrogen	
gypsum	Gypsum	
gypsum_pelletized	Gypsum, Pelletized	
holiday_brook_farm	Holiday Brook Farm compost	compost
holomac	HoloMac	
holomic	HoloMic	
homemade	Homemade compost	compost
horsetail_tea	Horsetail tea	
humates	Humates	organic fertilizer
humic_acid	Humic Acid	
humic_dg	Humic DG	organic fertilizer
imo_1_and_2	IMO 1 and 2/Homemade	
innova	Innova	organic fertilizer
intrepid_trio	Intrepid Trio	organic fertilizer
jms_microbe_solution	Jadam Microorganism Solution	compost tea
jobes_organic_all_purpose	Jobe's Organic All Purpose	
jobes_organic_for_vegetables	Jobe's Organic for Vegetables	
k_mag	K-Mag	
k_mate_sg	K-Mate SG	
kelpak	Kelpak	
kelpmeal	Kelpmeal	
krehers_543	Kreher's 5-4-3	
l_cbf__7_21_3_mkp	L-CBF 7-21-3 MKP	organic fertilizer
l_cbf_boost	L-CBF-BOOST	organic fertilizer
leaves	Leaves/Leaf Litter	mulch
living_stone_organics_seed_treatment	Living Stone Organics Seed Treatment	
magnesium_sulphate	Mg, Magnesium Sulphate	
manganese_sulfate	Manganese Sulfate	
manure_beef	Manure, Beef	manure
manure_chicken	Manure, Chicken	manure
manure_dairy	Manure, Dairy	manure
manure_goat	manure, Goat	manure
manure_other	Manure, Other	manure
manure_sheep	Manure, Sheep	manure
manure_swine	Manure, Swine	manure
mcgeary_543	McGeary 5-4-3	
meatmeal	Meatmeal	
microhume	MicroHume	organic fertilizer
molasses	Molasses	
mushroom_compost	Mushroom compost	mulch, organic fertilizer
mushroom_soil	Mushroom soil	mulch, organic fertilizer
nettle_plant_fertilizer	Nettle Plant Fertilizer	organic fertilizer
nutrasoft_op	Nutrasoft OP	
nutrisprout	Nutrisprout	
plantsure	PlantSure	
plastic	Plastic mulch	mulch
potassium_sulfate	Potassium Sulfate	
pro-gro	Pro-gro	organic fertilizer
proboost	Proboost	organic fertilizer
protekt_silicon	ProTeKt Silicon	foliar spray
pt_9_1_1	PT 9.1.1	
purple_cow_activated_compost	Purple Cow Activated Compost	compost
quantum	Quantum	
rawmilk	Raw milk	
rejuvenate	Rejuvenate	
residuce_complete	Residuce Complete	
residuce_o	Residuce O	
residuce_ws	Residuce WS	
revita_plus	Revita Plus 3-4-3	
revita_pro	Revita Pro 5-4-5	
rock_phosphate_pelletized	Rock Phosphate, Pelletized	
rock_phosphate_soft	Rock Phosphate, Soft	
rootsurge	RootSurge	
seacrop	SeaCrop	
seacrop_90	Seacrop 90	
seasalt	Seasalt	
seashield	Seashield	
seaweed	Seaweed	mulch
shrimp	shrimp	
shrimpmeal	Shrimpmeal	
smartphos_dg_natural	SmartPhos DG Natural	
sodium_molybdate	Sodium molybdate	
solubor	Solubor	
soybeanmeal	Soybean meal	
spectrum	Spectrum	
spectrum_ds	Spectrum DS	
spectrum_psb	Spectrum PSB	
straw_hay	Straw/Hay	
sulfate	Sulfate	
sulfur_plus	Sulfur Plus	
super_cal_s04	Super Cal S04	
super_k_347	Super K 3-4-7	
supercal_so4	SuperCal SO4	
tenessee_brown_rock	Tenessee Brown Rock	
terranu_calcium	TerraNu Calcium	
terranu_ignite	TerraNu Ignite	
terranu_micropack	TerraNu Micropack	
vermicompost	Vermicompost	
vermont_compost	Vermont Compost compost	compost
vinegar	Vinegar	
wakeup_summer	WakeUp Summer	foliar spray
wood_chips	Wood Chips	mulch
worm_castings	Worm castings	
zeolites	Zeolites	
zinc_sulfate	Zn, Zinc sulfate	