365_organic,365 Organic
airchief_sun_acific,Airchief (Sun Pacific)
alderman_farms,Alderman Farms
altar,Altar
andy_boy,Andy Boy
anthonys_organic,Anthony's Organic
arra,Arra
baker_farms,Baker Farms
baloian_farms,Baloian Farms
big_y,Big Y
bolthouse_farms,Bolthouse Farms
bonipak,Bonipak
boskovich_farms,Boskovich Farms
brighthouse_organics,Brighthouse Organics
bunny_luv,Bunny-Luv
cal_organic,Cal Organic
capac_chief,Capac Chief
chefs_way,Chef's Way
cherto,Cherto
church_brothers_farms,Church Brothers Farms
coke_farm,Coke Farm
dandy,Dandy
delano_farms,Delano Farms
delcabo,delCabo
divine_flavor,Divine Flavor
dole,Dole
durst_organic_growers,Durst Organic Growers
earthbound_farm,Earthbound Farm
east_coast_organics,East Coast Organics
edible_garden,Edible Garden
evercrisp_vegetables,Evercrisp Vegetables
flint_ridge,Flint Ridge
foxy,Foxy
fresh_express,Fresh Express
full_circle_market,Full Circle Market
glory_foods,Glory Foods
gotham_greens,Gotham Greens
grapery,Grapery
green_field_farms,Green Field Farms
green_giant,Green Giant
green_leaf,Green Leaf
green_mountain_harvest,Green Mountain Harvest
green_magic_vegetables,Green Magic Vegetables
grimmway_farms,Grimmway Farms
grown_true,Grown True
hall_brook_farm,Hall Brook Farm
hannaford,Hannaford
happy_valley_organics,Happy Valley Organics
hmc_farms,HMC Farms
hungenberg_produce,Hungenberg Produce
j_d_produce,J&D Produce
jersey_fresh,Jersey Fresh
josies_organics,Josie's Organics
juniper_hill_farm,Juniper Hill Farm
kern_ridge,Kern Ridge
kroger,Kroger
lady_moon_farms,Lady Moon Farms
lakeside_organic_gardens,Lakeside Organic Gardens
long_wind_farm,Long Wind Farm
manns,Mann's
marketside,Marketside
mason_farms,Mason Farms
mcclellan_organics,Mcclellan Organics
meijer,Meijer
mr_lucky,Mr Lucky
mucci_farms,Mucci Farms
nature_sweet,Nature Sweet
natures_greens,Nature's Greens
natures_promise,Nature’s Promise
new_sprout_organic_farms,New Sprout Organic Farms
o_organics,O Organics
oak_canyon_farms,Oak Canyon Farms
ocean_mist,Ocean Mist
oceanside_organic,Oceanside Organic
olivias_organics,Olivia's Organic's
organic_girl,Organic Girl
oxen_hill_farms,Oxen Hill Farms
pams_carrots,Pams Carrots
patrick_farms,Patrick Farms
peter_rabbit_farms,Peter Rabbit Farms
petes_living_organic,Petes Living Organic
prairerth_farm,Prairerth Farm
private_selection,Private Selection
pure_pacific,Pure Pacific
queen_victoria,Queen Victoria
ralphs_greenhouse,Ralph's Greenhouse
red_tomato_righteous_produce,Red Tomato Righteous Produce
santa_sweets,Santa Sweets
signature_farms,Signature Farms
silver_canyon,Silver Canyon
simple_truth,Simple Truth
simply_nature,Simply Nature
spiral_path_farm,Spiral Path Farm
stop_and_shop,Stop & Shop
sun_pacific,Sun Pacific
sunripe,Sunripe
sunset,Sunset
sunview,Sunview
tanimura_and_antle,Tanimura & Antle
taylor_farms,Taylor Farms
trader_joes,Trader Joe's
tuscarara_farms,Tuscarara Farms
valley_farms,Valley Farms
vander_weele_farms,Vander Weele Farms
village_farms,Village Farms
water_song_produce,Water Song Produce
watsonia_organics,Watsonia Organics
wegmans,Wegmans
wholesum_harvest,Wholesum Harvest
unknown,"No Brand, Loose Bin"
