alfalfa	Alfalfa	legumes
annual_ryegrass	Annual Ryegrass	grasses
arugula	Arugula	brassicas
barley	Barley	grasses
berseem_clover	Berseem Clover	legumes
buckwheat	Buckwheat	grasses
canola	Canola	brassicas
chickling_vetch	Chickling Vetch	legumes
cowpea	Cowpea	legumes
field_pea	Field Pea	legumes
hairy_vetch	Hairy Vetch	legumes
millet	Millet	grasses
mustard	Mustard	brassicas
oats	Oats	grasses
orchardgrass	Orchardgrass	grasses
perennial_ryegrass	Perennial Ryegrass	grasses
radish	Radish	brassicas
rapeseed	Rapeseed	brassicas
red_clover	Red Clover	legumes
sorghum	Sorghum	grasses
soybean	Soybean	legumes
spelt	Spelt	grasses
subterranean_clover	Subterranean Clover	legumes
sudangrass	Sudangrass	grasses
sunn_hemp	Sunn Hemp	legumes
sweetclover	Sweetclover	legumes
teff	Teff	grasses
timothy	Timothy	grasses
triticale	Triticale	grasses
turnip	Turnip	brassicas
white_clover	White Clover	legumes
winter_rye	Winter Rye	grasses
winter_wheat	Winter Wheat	grasses
