﻿animal_welfare_approved,Animal Welfare Approved
biodynamic,Biodynamic
black_owned,Black-owned Business
certified_naturally_grown,Certified Naturally Grown
certified_organic,Certified Organic
certified_organic_ingredients,Certified Organic Ingredients
chemical_free,Chemical-Free
conventionally_grown,Conventionally Grown
cottage_foods,Cottage foods prepared at home or on farm
donations,Donations
ebt_snap_accepted,EBT/SNAP Accepted
fsma_compliant,FSMA Compliant
grass_fed_and_finished,Grass Fed and Finished
hand_crafted,Hand crafted
indigenous_owned,Indigenous-owned Business
non_gmo_verified,Non-GMO Verified
organic_practice,"Organically grown or raised, not certified"
pasture_raised,Pasture Raised
plastic_free,Plastic-free
real_food_campaign,Real Food Campaign
special_offers,Special Offers
woman_owned,Woman-owned Business
