label,value
New York City,new_york_city
Los Angeles,los_angeles
Chicago,chicago
Houston,houston
Phoenix,phoenix
San Antonio,san_antonio
Philadelphia,philadelphia
San Diego,san_diego
Dallas,dallas
Austin,austin
San Jose,san_jose
Fort Worth,fort_worth
Jacksonville,jacksonville
Charlotte,charlotte
Columbus,columbus
Indianapolis,indianapolis
San Francisco,san_francisco
Seattle,seattle
Denver,denver
Washington,washington
Boston,boston
El Paso,el_paso
Nashville,nashville
Oklahoma City,oklahoma_city
Las Vegas,las_vegas
Portland,portland
Detroit,detroit
Memphis,memphis
Louisville,louisville
Milwaukee,milwaukee
Baltimore,baltimore
Albuquerque,albuquerque
Tucson,tucson
Mesa,mesa
Fresno,fresno
Atlanta,atlanta
Sacramento,sacramento
Kansas City,kansas_city
Colorado Springs,colorado_springs
Raleigh,raleigh
Miami,miami
Omaha,omaha
Long Beach,long_beach
Virginia Beach,virginia_beach
Oakland,oakland
Minneapolis,minneapolis
Tampa,tampa
Tulsa,tulsa
Arlington,arlington
Aurora,aurora
Wichita,wichita
Bakersfield,bakersfield
New Orleans,new_orleans
Cleveland,cleveland
Henderson,henderson
Anaheim,anaheim
Honolulu,honolulu
Riverside,riverside
Santa Ana,santa_ana
Corpus Christi,corpus_christi
Lexington,lexington
San Juan,san_juan
Stockton,stockton
St. Paul,st_paul
Cincinnati,cincinnati
Irvine,irvine
Greensboro,greensboro
Pittsburgh,pittsburgh
Lincoln,lincoln
Durham,durham
Orlando,orlando
St. Louis,st_louis
Chula Vista,chula_vista
Plano,plano
Newark,newark
Anchorage,anchorage
Fort Wayne,fort_wayne
Chandler,chandler
Reno,reno
Las Vegas,las_vegas
Scottsdale,scottsdale
St. Petersburg,st_petersburg
Laredo,laredo
Gilbert,gilbert
Toledo,toledo
Lubbock,lubbock
Madison,madison
Glendale,glendale
Jersey City,jersey_city
Buffalo,buffalo
Chesapeake,chesapeake
Winston-Salem,winston_salem
Fremont,fremont
Norfolk,norfolk
Frisco,frisco
Paradise,paradise
Irving,irving
Garland,garland
Richmond,richmond
Arlington,arlington
Boise,boise
Spokane,spokane
Hialeah,hialeah
Moreno Valley,moreno_valley
Tacoma,tacoma
Port St. Lucie,port_st_lucie
McKinney,mcKinney
Fontana,fontana
Modesto,modesto
Fayetteville,fayetteville
Baton Rouge,baton_rouge
San Bernardino,san_bernardino
Santa Clarita,santa_clarita
Cape Coral,cape_coral
Des Moines,des_moines
Tempe,tempe
Huntsville,huntsville
Oxnard,oxnard
Spring Valley,spring_valley
Birmingham,birmingham
Rochester,rochester
Overland Park,overland_park
Grand Rapids,grand_rapids
Yonkers,yonkers
Salt Lake City,salt_lake_city
Columbus,columbus
Augusta,augusta
Amarillo,amarillo
Tallahassee,tallahassee
Ontario,ontario
Montgomery,montgomery
Little Rock,little_rock
Akron,akron
Huntington Beach,huntington_beach
Grand Prairie,grand_prairie
Glendale,glendale
Sioux Falls,sioux_falls
Sunrise Manor,sunrise_manor
Aurora,aurora
Vancouver,vancouver
Knoxville,knoxville
Peoria,peoria
Mobile,mobile
Chattanooga,chattanooga
Worcester,worcester
Brownsville,brownsville
Fort Lauderdale,fort_lauderdale
Newport News,newport_news
Elk Grove,elk_grove
Providence,providence
Shreveport,shreveport
Salem,salem
Pembroke Pines,pembroke_pines
Eugene,eugene
Rancho Cucamonga,rancho_cucamonga
Cary,cary
Santa Rosa,santa_rosa
Fort Collins,fort_collins
Oceanside,oceanside
Corona,corona
Enterprise,enterprise
Garden Grove,garden_grove
Springfield,springfield
Clarksville,clarksville
Murfreesboro,murfreesboro
Lakewood,lakewood
Bayamon,bayamon
Killeen,killeen
Alexandria,alexandria
Midland,midland
Hayward,hayward
Hollywood,hollywood
Salinas,salinas
Lancaster,lancaster
Macon,macon
Surprise,surprise
Kansas City,kansas_city
Sunnyvale,sunnyvale
Palmdale,palmdale
Bellevue,bellevue
Springfield,springfield
Denton,denton
Jackson,jackson
Escondido,escondido
Pomona,pomona
Naperville,naperville
Roseville,roseville
Thornton,thornton
Round Rock,round_rock
Pasadena,pasadena
Joliet,joliet
Carrollton,carrollton
McAllen,mcallen
Paterson,paterson
Rockford,rockford
Waco,waco
Bridgeport,bridgeport
Miramar,miramar
Olathe,olathe
Metairie,metairie
Kalamazoo,kalamazoo
Boulder,boulder
