Almond	Almond
Avocados	Avocados
Cherries	Cherries
English Walnuts	English Walnuts
Grapefruit	Grapefruit
Grape, Raisin	Grape, Raisin
Grape, Table	Grape, Table
Grape, Wine (<1390 GDD)	Grape, Wine (<1390 GDD)
Grape, Wine (1391-1670 GDD)	Grape, Wine (1391-1670 GDD)
Grape, Wine (1671-1950 GDD)	Grape, Wine (1671-1950 GDD)
Grape, Wine (>1950 GDD)	Grape, Wine (>1950 GDD)
Lemons & Limes	Lemons & Limes
Olives	Olives
Oranges	Oranges
Peaches and Nectarines	Peaches and Nectarines
Pistachios	Pistachios
Tangerines & Mandarins	Tangerines & Mandarins
