alfalfa_mosaic	alfalfa mosaic, viral
alternaria_black_spot	alternaria black spot, fungal
alternaria_leaf_blight	alternaria leaf blight, fungal
alternaria_leaf_spot	alternaria leaf spot, fungal
alternaria_leaf_spot_of_blueberry	alternaria leaf spot of blueberry, misc
alternaria_rot	alternaria rot, fungal
alternaria_stem_canker	alternaria stem canker, fungal
angular_leaf_scorch	angular leaf scorch, fungal
angular_leaf_spot	angular leaf spot, fungal
anthracnose	anthracnose, fungal
anthracnose_and_bird_s-eye_rot	anthracnose and bird's-eye rot, fungal
aphanomyces_root_rot	aphanomyces root rot, fungal
aphid	aphid, misc
arabis_mosaic	arabis mosaic, viral
armillaria_root_rot__shoestring_root_rot	armillaria root rot (shoestring root rot), fungal
armillaria_root_rot_of_blueberry	armillaria root rot of blueberry, misc
armyworm	armyworm, misc
armyworm_and_looper	armyworm and looper, misc
artichoke_italian_latent	artichoke italian latent, viral
aspergillus_rot	aspergillus rot, fungal
aster_yellows	aster yellows, misc
0	, viral
asteroid_mosaic	asteroid mosaic, viral
autogenic_necrosis	autogenic necrosis, misc
bacterial_black_rot	bacterial black rot, bacterial
bacterial_blight__halo_blight	bacterial blight (halo blight), bacterial
bacterial_canker_of_tomato	bacterial canker of tomato, bacterial
bacterial_inflorescence_rot	bacterial inflorescence rot, bacterial
bacterial_leaf_blight	bacterial leaf blight, bacterial
bacterial_leaf_scorch	bacterial leaf scorch, misc
bacterial_leaf_spot	bacterial leaf spot, bacterial
bacterial_leaf_spot_and_head_rot	bacterial leaf spot and head rot, bacterial
bacterial_soft_rot	bacterial soft rot, bacterial
bacterial_speck	bacterial speck, bacterial
bacterial_spot	bacterial spot, bacterial
bacterial_stem_rot_and_fruit_rot	bacterial stem rot and fruit rot, bacterial
bacterial_stripe_blight	bacterial stripe blight, bacterial
bacterial_wilt	bacterial wilt, bacterial
beet_cyst_nematode	beet cyst nematode, nematodes
berry_rot	berry rot, misc
big_vein	big vein, viral
black_chaff_and_bacterial_streak__stripe	black chaff and bacterial streak (stripe), bacterial
black_leg__leaf_root_and_stem_rot	black leg (leaf, root and stem rot), fungal
black_measles	black measles, misc
black_mold_rot	black mold rot, fungal
black_root	black root, fungal
black_root_rot	black root rot, fungal
black_rot__black_carrot_root_dieback	black rot (black carrot root dieback), fungal
black_rot_of_grapes	black rot of grapes, fungal
black_shoulder	black shoulder, fungal
black_vine_weevil	black vine weevil, misc
blast	blast, fungal
0	, misc
blue_mold_rot__blue_green_mold	blue mold rot (blue green mold), fungal
blueberry_foliar_diseases	blueberry foliar diseases, misc
blueberry_gall_midge	blueberry gall midge, misc
bois_noir_black_wood_disease	bois noir/black wood disease, viral
borer	borer, misc
bot_canker	bot canker, fungal
botryosphaeria_stem_canker	botryosphaeria stem canker, misc
botrytis__grey_rot_or_noble_rot	botrytis (grey rot or noble rot), fungal
botrytis_blight	botrytis blight, fungal
bottom_rot	bottom rot, fungal
bratislava_mosaic	bratislava mosaic, viral
broad_bean_wilt	broad bean wilt, viral
brown_marmorated_stink_bug	brown marmorated stink bug, misc
brown_rot__phoma_disease	brown rot (phoma disease), fungal
brown_stain	brown stain, misc
buckeye_rot_of_tomato	buckeye rot of tomato, fungal
buckshot_rot	buckshot rot, fungal
bulb_and_stem	bulb and stem, nematodes
cabbage_maggot	cabbage maggot, misc
calico	calico, viral
canker	canker, fungal
carrot_bacteriosis	carrot bacteriosis, bacterial
carrot_latent	carrot latent, viral
carrot_mottle	carrot mottle, viral
carrot_red_leaf	carrot red leaf, viral
carrot_rust_fly	carrot rust fly, misc
carrot_thin_leaf	carrot thin leaf, viral
carrot_yellow_leaf	carrot yellow leaf, viral
cavity_spot	cavity spot, fungal
celery_mosaic	celery mosaic, viral
cercospora_leaf_mold	cercospora leaf mold, fungal
cercospora_leaf_spot	cercospora leaf spot, fungal
charcoal_rot	charcoal rot, fungal
cherry_fruitworm	cherry fruitworm, misc
chlorosis	chlorosis, misc
citrus	citrus, nematodes
clover_cyst_nematode	clover cyst nematode, nematodes
clubroot	clubroot, fungal
collembola__springtail	collembola (springtail), misc
colorado_potato_beetle	colorado potato beetle, misc
common_mosaic_of_tomato__internal_browning_of_fruit	common mosaic of tomato (internal browning of fruit), viral
corky_bark	corky bark, viral
corky_root	corky root, bacterial
corky_root_rot	corky root rot, fungal
corn_earworm	corn earworm, misc
cottony_grape_scale	cottony grape scale, misc
cottony_rot	cottony rot, fungal
crater_rot	crater rot, fungal
crown_gall	crown gall, bacterial
crown_rot	crown rot, fungal
crown_rot_disorder	crown rot disorder, misc
cucumber_beetle	cucumber beetle, misc
cucumber_mosaic	cucumber mosaic, viral
curly_top	curly top, viral
cutworm	cutworm, misc
0	, moth
cyst	cyst, nematodes
cyst_oat_or_cereal	cyst, oat or cereal, nematodes
dagger	dagger, nematodes
dagger_american	dagger, american, nematodes
damping_off	damping off, fungal
damping-off	damping-off, fungal
damping-off_pythium	damping-off, pythium, fungal
damping-off_rhizoctonia	damping-off, rhizoctonia, fungal
diamondback_moth	diamondback moth, misc
didymella_stem_rot	didymella stem rot, fungal
dieback_of_carrots	dieback of carrots, fungal
double_spot_and_gloeocercospora_leaf_spot	double spot and gloeocercospora leaf spot, misc
downy_mildew	downy mildew, fungal
downy_mildew_blue_mold	downy mildew blue mold, fungal
drop__sclerotinia_rot	drop (sclerotinia rot), fungal
early_blight	early blight, fungal
enation	enation, viral
ergot	ergot, fungal
esca__apoplexy	esca (apoplexy), misc
european_cranefly	european cranefly, misc
european_earwig	european earwig, misc
european_fruit_lecanium_scale	european fruit lecanium scale, misc
false_root_knot	false root knot, nematodes
fanleaf_degeneration__infectious_degeneration_and_decline	fanleaf degeneration (infectious degeneration and decline), viral
fasciation	fasciation, misc
flavescence_dorée	flavescence dorée, viral
flea_beetle	flea beetle, misc
fleck__marbrure	fleck (marbrure), viral
forking_brown_root	forking, brown root, fungal
fusarium_crown_and_root_rot	fusarium crown and root rot, fungal
fusarium_dry_rot	fusarium dry rot, fungal
fusarium_foot_rot	fusarium foot rot, fungal
fusarium_wilt	fusarium wilt, fungal
garden_symphylan	garden symphylan, misc
gloeosporium_leaf_spot_or_anthracnose_of_blueberry	gloeosporium leaf spot or anthracnose of blueberry, misc
grape_bud_mite	grape bud mite, misc
grape_erineum_mite	grape erineum mite, misc
grape_mealybug	grape mealybug, misc
grape_phylloxera	grape phylloxera, misc
grape_rust_mite	grape rust mite, misc
grapevine_bulgarian_latent	grapevine bulgarian latent, viral
grapevine_chrome_mosaic	grapevine chrome mosaic, viral
grapevine_red_blotch	grapevine red blotch, viral
grapevine_yellows	grapevine yellows, viral
grasshopper	grasshopper, misc
gray_leaf_spot	gray leaf spot, fungal
gray_mold	gray mold, fungal
gray_mold_rot	gray mold rot, fungal
gray_streak	gray streak, misc
hairy_root	hairy root, bacterial
happy_disease__bacterial_necrosis	happy disease (bacterial necrosis), bacterial
hard_rot	hard rot, fungal
head_blight	head blight, fungal
head_rot	head rot, fungal
heat_canker	heat canker, misc
hollow_black_heart	hollow black heart, misc
imported_cabbageworm	imported cabbageworm, misc
internal_rib_necrosis	internal rib necrosis, viral
late_blight	late blight, fungal
lateral_root_dieback	lateral root dieback, fungal
leaf_blotch_and_crown_rot__helminthosporium_leaf_blotch	leaf blotch and crown rot (helminthosporium leaf blotch), fungal
leaf_mold	leaf mold, fungal
leaf_rot	leaf rot, fungal
leaf_rust_of_blueberry	leaf rust of blueberry, misc
leaf_spot	leaf spot, fungal
leafhopper	leafhopper, misc
leafroll	leafroll, viral
leafroller	leafroller, misc
lesion	lesion, nematodes
licorice_rot	licorice rot, fungal
little_leaf	little leaf, misc
looper	looper, misc
lygus_bug	lygus bug, misc
mitigating_mummy_berry_disease_of_blueberry	mitigating mummy berry disease of blueberry, fungal
mosaic	mosaic, viral
motley_dwarf	motley dwarf, viral
mummy_berry_disease_of_blueberry	mummy berry disease of blueberry, fungal
necrotic_yellows	necrotic yellows, viral
needle	needle, nematodes
oat_blue_dwarf	oat blue dwarf, viral
oat_mosaic	oat mosaic, viral
oat_necrotic_mottle	oat necrotic mottle, viral
oat_red_leaf	oat red leaf, viral
obscure_root_weevil	obscure root weevil, misc
other	other, viral
oxidant_stipple	oxidant stipple, misc
ozone_injury	ozone injury, misc
peach_rosette_mosaic_virus_decline	peach rosette mosaic virus decline, viral
petunia_asteroid_mosaic	petunia asteroid mosaic, viral
phoma_blight	phoma blight, fungal
phoma_rot	phoma rot, fungal
phymatotrichum_root_rot__cotton_root_rot	phymatotrichum root rot (cotton root rot), fungal
physiological_leaf_spot	physiological leaf spot, misc
phytophthora_root_rot	phytophthora root rot, fungal
phytophtora_root_rot	phytophtora root rot, misc
pierce_s_disease	pierce's disease, bacterial
pin	pin, nematodes
pink_mold_rot	pink mold rot, fungal
pith_necrosis	pith necrosis, bacterial
potato_virus_y	potato virus y, viral
powdery_mildew	powdery mildew, fungal
powdery_mildew_of_blueberry	powdery mildew of blueberry, misc
pseudo_curly_top	pseudo curly top, viral
pythium_brown_rot_and_forking	pythium brown rot and forking, fungal
pythium_damping-off_and_fruit_rot	pythium damping-off and fruit rot, fungal
pythium_root_dieback	pythium root dieback, fungal
pythium_root_rot	pythium root rot, fungal
rai_mosaic_virus	rai mosaic virus, viral
raspberry_ringspot	raspberry ringspot, viral
red_rust	red rust, fungal
reniform	reniform, nematodes
rhizoctonia_canker	rhizoctonia canker, fungal
rhizoctonia_damping-off_and_fruit_rot	rhizoctonia damping-off and fruit rot, fungal
rhizoctonia_root_rot	rhizoctonia root rot, fungal
rhizoctonia_seedling_disease	rhizoctonia seedling disease, fungal
rhizopus_rot	rhizopus rot, fungal
rhizopus_wooly_soft_rot	rhizopus wooly soft rot, fungal
ring	ring, nematodes
ring_necrosis	ring necrosis, viral
root_canker	root canker, fungal
root_dieback	root dieback, fungal
root_knot	root knot, nematodes
root_lesion	root lesion, nematodes
root_rot	root rot, fungal
root_scab	root scab, misc
root_weevil	root weevil, misc
root-knot	root-knot, nematodes
rubbery_brown_rot	rubbery brown rot, fungal
rubbery_slate_rot	rubbery slate rot, fungal
rupestris_speckle	rupestris speckle, misc
rupestris_stem_pitting	rupestris stem pitting, viral
russet_spotting	russet spotting, misc
rust	rust, fungal
rust_crown	rust, crown, fungal
rust_stem	rust, stem, fungal
rusty_brown_discoloration	rusty brown discoloration, viral
rusty_root	rusty root, fungal
scab	scab, bacterial
scale_insects	scale insects, misc
sclerotinia_rot	sclerotinia rot, fungal
sclerotinia_stem_rot	sclerotinia stem rot, fungal
seed_mold	seed mold, fungal
seedcorn_maggot	seedcorn maggot, misc
seedling_blight	seedling blight, fungal
septoria_leaf_spot	septoria leaf spot, fungal
0	, misc
sharp_eyespot	sharp eyespot, fungal
sheath	sheath, nematodes
shoot_necrosis	shoot necrosis, viral
slug	slug, misc
smut_covered	smut, covered, fungal
smut_loose	smut, loose, fungal
snow_mold_pink__fusarium_patch	snow mold, pink (fusarium patch), fungal
snow_mold_speckled_or_gray__typhula_blight	snow mold, speckled or gray (typhula blight), fungal
sooty_rot	sooty rot, fungal
sour_rot	sour rot, fungal
southern_blight	southern blight, fungal
sowbane_mosaic	sowbane mosaic, viral
speckled_blotch__septoria_blight	speckled blotch (septoria blight), fungal
speckled_carrot	speckled carrot, misc
speckles	speckles, viral
spider_mite	spider mite, misc
spinach_blight	spinach blight, viral
spinach_mosaic	spinach mosaic, viral
spiral	spiral, nematodes
spotted_wing_drosophila	spotted wing drosophila, misc
spotted_wing_drosophila__swd	spotted wing drosophila (swd), misc
squash_bug	squash bug, misc
stem_blight_of_blueberry	stem blight of blueberry, misc
stem_blight_of_blueberry_--_control	stem blight of blueberry -- control, misc
stem_necrosis__water_berry_grape_peduncle_necrosis	stem necrosis (water berry, grape peduncle necrosis), misc
stem_spot	stem spot, fungal
stemphylium_leaf_spot	stemphylium leaf spot, fungal
sting	sting, nematodes
stink_bug	stink bug, misc
strawberry_latent_ringspot	strawberry latent ringspot, viral
stubby-root	stubby-root, nematodes
stunt	stunt, nematodes
0	, viral
syringae_leaf_spot	syringae leaf spot, bacterial
take-all__white_head	take-all (white head), fungal
target_spot	target spot, fungal
thrips	thrips, misc
tip_rot	tip rot, fungal
tipburn	tipburn, misc
tobacco_hornworm	tobacco hornworm, moth
tobacco_mosaic	tobacco mosaic, viral
tobacco_necrosis	tobacco necrosis, viral
tobacco_ringspot_virus_decline	tobacco ringspot virus decline, viral
tomato_big_bud	tomato big bud, viral
tomato_black_ring	tomato black ring, viral
tomato_bunchy_top	tomato bunchy top, viral
tomato_bushy_stunt	tomato bushy stunt, viral
tomato_etch	tomato etch, viral
tomato_fern_leaf	tomato fern leaf, viral
tomato_fruitworm	tomato fruitworm, moth
tomato_hornworm	tomato hornworm, moth
tomato_mosaic	tomato mosaic, viral
tomato_mottle	tomato mottle, viral
tomato_necrosis	tomato necrosis, viral
tomato_planto_macho	tomato planto macho, viral
tomato_ringspot_virus_decline	tomato ringspot virus decline, viral
tomato_spotted_wilt	tomato spotted wilt, viral
tomato_yellow_leaf_curl	tomato yellow leaf curl, viral
tomato_yellow_top	tomato yellow top, viral
twig_blight_of_blueberry	twig blight of blueberry, misc
twospotted_spider_mite	twospotted spider mite, misc
umbel_blight	umbel blight, fungal
varnish_spot	varnish spot, bacterial
vein_mosaic	vein mosaic, viral
verticillium_wilt	verticillium wilt, fungal
victoria_blight	victoria blight, fungal
violet_root_rot	violet root rot, fungal
virescence	virescence, viral
watery_soft_rot	watery soft rot, fungal
western_bean_cutworm	western bean cutworm, misc
white_leaf_spot	white leaf spot, fungal
white_mold	white mold, fungal
white_rust	white rust, fungal
white_smut	white smut, fungal
whitefly	whitefly, misc
wilt	wilt, viral
wilt_and_leaf_blight	wilt and leaf blight, fungal
winter_moth	winter moth, misc
wirestem	wirestem, fungal
wireworm	wireworm, misc
witches-broom	witches-broom, bacterial
xanthomonas_leaf_spot	xanthomonas leaf spot, bacterial
yellow_dwarf	yellow dwarf, viral
yellow_speckle	yellow speckle, viral
yellow_spot	yellow spot, viral
yellowjacket	yellowjacket, misc
yellows	yellows, fungal
