Value,Label
sementes_vivas,Sementes Vivas
adaptive_seeds,Adaptive Seeds
albert_lee,Albert Lee
baker_creek_heirloom_seeds,Baker Creek Heirloom Seeds
deep_harvest_seeds,Deep Harvest Seeds
df_seeds,DF Seeds
fedco,Fedco 
grand_teton_organics,Grand Teton Organics
grow_gainesville,Grow Gainesville
high_mowing_seeds,High Mowing Seeds
janies_farm_seed,Janie's Farm
johnnys_seeds,Johnny's Seeds
pickford_feed_service,Pickford Feed Service
rocky_farms,Rocky Farms
southern_exposure,Southern Exposure
territorial,Territorial
teton_seeds,Teton Seeds
true_leaf_seed_co,True Leaf Seed Co
white_harvest_seeds,White Harvest Seeds
wood_prairie_family_farms,Wood Prairie Family Farms
