Value	Label	Tags
basalt	Basalt	
bd_500	BD 500	
bd_507_valerian	BD 507 Valerian	
bd_barrel_compound	BD Barrel Compound	
beam	BEAM	
biochar	Biochar	
biocoat_gold	Biocoat gold	
bio_innoculate	Bio Innoculate	
biological	Biological	
carbonate	Carbonate	
compost	Compost	
crescendo	Crescendo	
drench	Drench	
dynamin	Dynamic	
equisetum	Equisetum	
eno_maximum	Eno Maximum	
fish_emulsion	Fish Emulsion	
fish_fertilizer	Fish Fertilizer	
foliar_spray	Foliar Spray	
foxfarm_grow_big_6-4-4	FoxFarm Grow Big 6-4-4	
fungicide	Fungicide	
humates	Humates	
inoculum	Inoculum	
insecticide	Insecticide	
jms_microbe_solution	JMS Jadam Microbe Solution	
kelp	Kelp	
kelp_meal	Kelp Meal	
lactobacillus	LactoBacillus	
lime	Lime	
mycoapply	MycoApply	
mycorrhizae	Mycorrhizae	
mycogenesis	MycoGenesis	
mycogrow	MycoGrow	
none	None	
other	Other	
rock_dust	Rock Dust	
sabrex	Sabrex	
spectrum	Spectrum	
sustane	Sustane	
tennessee_brown_rock_phosphate	Tennessee Brown Rock Phosphate	
water_only	Water Only	
worm_castings	Worm Castings	
worm_castings_with_biochar	Worm Castings with Biochar	
zeolites	Zeolites	
vinegar	Vinegar	
jlf	JLF	
omri_chicken_pellets	OMRI Chicken Pellets	
crop_services_fish	Crop Services Int. High Energy Fish	
fungi	Fungi	
quantum	Quantum	
fpj	FPJ	