label,value,tags
Broadcast - Surface,broadcast_surface,
Broadcast - Incorporated,broadcast_incorporated,
Banded,banded,
Topdress,topdress,
Sidedress,sidedress,
Seed Placement,seed_placement,
Foliar,foliar,
Injection,injection,
Fertigation,fertigation,
